Vero’s Data Analysis
…
## -- Conflicts ------------------------------------------ tidyverse_conflicts() --
## x dplyr::filter() masks stats::filter()
## x dplyr::lag()    masks stats::lag()

# Let's read in our data
Big_Data <- read.csv("Vero.csv")

real_data <- (Big_Data)
as_tibble(real_data)

## # A tibble: 164 x 50
##    Timestamp         SEX    AGE   Religion  Profession Marital.Status Based.on.your.e~
##    <chr>             <chr>  <chr> <chr>     <chr>      <chr>          <chr>           
##  1 1/5/2021 12:45:27 Male   45-55 Muslim    Business ~ Divorced       "No"            
##  2 1/5/2021 12:49:49 Female 45-55 Others    Retired    Divorced       "No"            
##  3 1/6/2021 9:27:57  Female 20-35 Christain private O~ Married        ""              
##  4 1/6/2021 10:01:21 Male   20-35 Christain others     Married        ""              
##  5 1/6/2021 10:58:43 Female 20-35 Christain private O~ Married        ""              
##  6 1/6/2021 11:09:44 Female 20-35 Christain private O~ Married        ""              
##  7 1/6/2021 12:03:52 Male   20-35 Christain others     Married        ""              
##  8 1/6/2021 12:13:01 Female 20-35 Christain private O~ Married        ""              
##  9 1/6/2021 12:49:10 Male   55-65 Christain Business ~ Single         ""              
## 10 1/6/2021 13:08:11 Female 55-65 Christain Civil Ser~ Married        ""              
## # ... with 154 more rows, and 43 more variables: ...
…
